{
 "league": [
              {
                "name": "Fede",
                "players": [
                    {
                        "name": "Donnarumma G.",
                        "team": "milan",
                        "isCaptain": false
                    },
                    {
                        "name": "Romagnoli A.",
                        "team": "milan",
                        "isCaptain": false
                    },
                    {
                        "name": "Toloi R.",
                        "team": "atalanta",
                        "isCaptain": false
                    },
                    {
                        "name": "Hernandez T.",
                        "team": "milan",
                        "isCaptain": false
                    },
                    {
                        "name": "Gomez A.",
                        "team": "atalanta",
                        "isCaptain": false
                    },
                    {
                        "name": "Bennacer I.",
                        "team": "milan",
                        "isCaptain": false
                    },
                    {
                        "name": "Luis Alberto R.",
                        "team": "lazio",
                        "isCaptain": false
                    },
                    {
                        "name": "Kulusevski D.",
                        "team": "parma",
                        "isCaptain": false
                    },
                    {
                        "name": "Boga J.",
                        "team": "sassuolo",
                        "isCaptain": false
                    },
                    {
                        "name": "Ibrahimovic Z.",
                        "team": "milan",
                        "isCaptain": true
                    },
                    {
                        "name": "Immobile C.",
                        "team": "lazio",
                        "isCaptain": false
                    }
                ]
            },
            {
                "name": "Alek",
                "players": [
                    {
                        "name": "Strakosha T.",
                        "team": "lazio",
                        "isCaptain": false
                    },
                    {
                        "name": "Kolarov A.",
                        "team": "roma",
                        "isCaptain": false
                    },
                    {
                        "name": "Skriniar M.",
                        "team": "inter",
                        "isCaptain": false
                    },
                    {
                        "name": "Tomiyasu T.",
                        "team": "bologna",
                        "isCaptain": true
                    },
                    {
                        "name": "Lazzari M.",
                        "team": "lazio",
                        "isCaptain": false
                    },
                    {
                        "name": "Barella N.",
                        "team": "inter",
                        "isCaptain": false
                    },
                    {
                        "name": "Pulgar E.",
                        "team": "fiorentina",
                        "isCaptain": false

                    },
                    {
                        "name": "Tonali S.",
                        "team": "brescia",
                        "isCaptain": false
                    },
                    {
                        "name": "Lukaku R.",
                        "team": "inter",
                        "isCaptain": false
                    },
                    {
                        "name": "Vlahovic D.",
                        "team": "fiorentina",
                        "isCaptain": false
                    },
                    {
                        "name": "Caputo F.",
                        "team": "sassuolo",
                        "isCaptain": false
                    }
                ]
            },
     {
                "name": "Dani",
                "players": [
                    {
                        "name": "Strakosha T.",
                        "team": "lazio",
                        "isCaptain": false
                    },
                    {
                        "name": "Kolarov A.",
                        "team": "roma",
                        "isCaptain": false
                    },
                    {
                        "name": "Skriniar M.",
                        "team": "inter",
                        "isCaptain": false
                    },
                    {
                        "name": "Tomiyasu T.",
                        "team": "bologna",
                        "isCaptain": true
                    },
                    {
                        "name": "Lazzari M.",
                        "team": "lazio",
                        "isCaptain": false
                    },
                    {
                        "name": "Barella N.",
                        "team": "inter",
                        "isCaptain": false
                    },
                    {
                        "name": "Pulgar E.",
                        "team": "fiorentina",
                        "isCaptain": false

                    },
                    {
                        "name": "Tonali S.",
                        "team": "brescia",
                        "isCaptain": false
                    },
                    {
                        "name": "Lukaku R.",
                        "team": "inter",
                        "isCaptain": false
                    },
                    {
                        "name": "Vlahovic D.",
                        "team": "fiorentina",
                        "isCaptain": false
                    },
                    {
                        "name": "Caputo F.",
                        "team": "sassuolo",
                        "isCaptain": false
                    }
                ]
            }

    ]
}